Introduction to fable • fable
…
The fitted values and residuals from a model can obtained using fitted() and residuals() respectively. Additionally, the augment() function may be more convenient, which provides the original data along with both fitted values and their residuals.

fit %>%
  augment()
#> # A tsibble: 640 x 9 [1Q]
#> # Key:       Region, State, Purpose, .model [8]
#>    Region    State    Purpose  .model Quarter Trips .fitted  .resid  .innov
#>    <chr>     <chr>    <chr>    <chr>    <qtr> <dbl>   <dbl>   <dbl>   <dbl>
#>  1 Melbourne Victoria Business ets    1998 Q1  405.    396.    9.54    9.54
#>  2 Melbourne Victoria Business ets    1998 Q2  408.    483.  -75.1   -75.1 
#>  3 Melbourne Victoria Business ets    1998 Q3  486.    487.   -1.13   -1.13
#>  4 Melbourne Victoria Business ets    1998 Q4  429.    454.  -25.2   -25.2 
#>  5 Melbourne Victoria Business ets    1999 Q1  361.    391.  -30.3   -30.3 
#>  6 Melbourne Victoria Business ets    1999 Q2  486.    466.   19.9    19.9 
#>  7 Melbourne Victoria Business ets    1999 Q3  359.    492. -133.   -133.  
#>  8 Melbourne Victoria Business ets    1999 Q4  426.    424.    1.49    1.49
#>  9 Melbourne Victoria Business ets    2000 Q1  495.    364.  130.    130.  
#> 10 Melbourne Victoria Business ets    2000 Q2  499.    477.   22.0    22.0 
#> # … with 630 more rows
…
Forecasts from these models can be produced directly as our specified models do not require any additional data.

fc <- fit %>%
  forecast(h = "5 years")
fc
#> # A fable: 160 x 7 [1Q]
#> # Key:     Region, State, Purpose, .model [8]
#>    Region    State    Purpose  .model Quarter        Trips .mean
#>    <chr>     <chr>    <chr>    <chr>    <qtr>       <dist> <dbl>
#>  1 Melbourne Victoria Business ets    2018 Q1 N(619, 3533)  619.
#>  2 Melbourne Victoria Business ets    2018 Q2 N(709, 3766)  709.
#>  3 Melbourne Victoria Business ets    2018 Q3 N(738, 4042)  738.
#>  4 Melbourne Victoria Business ets    2018 Q4 N(713, 4364)  713.
#>  5 Melbourne Victoria Business ets    2019 Q1 N(664, 4735)  664.
#>  6 Melbourne Victoria Business ets    2019 Q2 N(755, 5159)  755.
#>  7 Melbourne Victoria Business ets    2019 Q3 N(784, 5640)  784.
#>  8 Melbourne Victoria Business ets    2019 Q4 N(759, 6181)  759.
#>  9 Melbourne Victoria Business ets    2020 Q1 N(710, 6786)  710.
#> 10 Melbourne Victoria Business ets    2020 Q2 N(800, 7458)  800.
#> # … with 150 more rows

The resulting forecasts are contained in a “fable” (forecast table), and both point forecasts and forecast distributions are available in the table for the next five years. Confidence intervals can be extracted from the distribution using the hilo() function.

The hilo() function can also be used on fable objects, which allows you to extract multiple intervals at once.

fc %>%
  hilo(level = c(80, 95))
#> # A tsibble: 160 x 9 [1Q]
#> # Key:       Region, State, Purpose, .model [8]
#>    Region State Purpose .model Quarter        Trips .mean                  `80%`
#>    <chr>  <chr> <chr>   <chr>    <qtr>       <dist> <dbl>                 <hilo>
#>  1 Melbo… Vict… Busine… ets    2018 Q1 N(619, 3533)  619. [542.3864, 694.7363]80
#>  2 Melbo… Vict… Busine… ets    2018 Q2 N(709, 3766)  709. [630.4443, 787.7426]80
#>  3 Melbo… Vict… Busine… ets    2018 Q3 N(738, 4042)  738. [656.9891, 819.9425]80
#>  4 Melbo… Vict… Busine… ets    2018 Q4 N(713, 4364)  713. [628.7879, 798.1010]80
#>  5 Melbo… Vict… Busine… ets    2019 Q1 N(664, 4735)  664. [575.8480, 752.2196]80
#>  6 Melbo… Vict… Busine… ets    2019 Q2 N(755, 5159)  755. [662.5141, 846.6176]80
#>  7 Melbo… Vict… Busine… ets    2019 Q3 N(784, 5640)  784. [687.6922, 880.1843]80
#>  8 Melbo… Vict… Busine… ets    2019 Q4 N(759, 6181)  759. [658.1603, 859.6735]80
#>  9 Melbo… Vict… Busine… ets    2020 Q1 N(710, 6786)  710. [603.9336, 815.0789]80
#> 10 Melbo… Vict… Busine… ets    2020 Q2 N(800, 7458)  800. [689.3620, 910.7146]80
#> # … with 150 more rows, and 1 more variable: 95% <hilo>
…
