Estimate a VARIMA model — VARIMA • fable
…
fitted(fit)
#> # A tsibble: 194 x 5 [1Q]
#> # Key:       .model [1]
#>    .model                                            Quarter  Beer Bricks Cement
#>    <chr>                                               <qtr> <dbl>  <dbl>  <dbl>
#>  1 "VARIMA(vars(Beer, Bricks, Cement) ~ pdq(4, 1, 1… 1956 Q1   NA     NA     NA 
#>  2 "VARIMA(vars(Beer, Bricks, Cement) ~ pdq(4, 1, 1… 1956 Q2   NA     NA     NA 
#>  3 "VARIMA(vars(Beer, Bricks, Cement) ~ pdq(4, 1, 1… 1956 Q3   NA     NA     NA 
#>  4 "VARIMA(vars(Beer, Bricks, Cement) ~ pdq(4, 1, 1… 1956 Q4   NA     NA     NA 
#>  5 "VARIMA(vars(Beer, Bricks, Cement) ~ pdq(4, 1, 1… 1957 Q1   NA     NA     NA 
#>  6 "VARIMA(vars(Beer, Bricks, Cement) ~ pdq(4, 1, 1… 1957 Q2  231.   211.   582.
#>  7 "VARIMA(vars(Beer, Bricks, Cement) ~ pdq(4, 1, 1… 1957 Q3  257.   235.   615.
#>  8 "VARIMA(vars(Beer, Bricks, Cement) ~ pdq(4, 1, 1… 1957 Q4  323.   220.   624.
#>  9 "VARIMA(vars(Beer, Bricks, Cement) ~ pdq(4, 1, 1… 1958 Q1  262.   186.   572.
#> 10 "VARIMA(vars(Beer, Bricks, Cement) ~ pdq(4, 1, 1… 1958 Q2  229.   215.   646.
#> # ℹ 184 more rows
residuals(fit)
#> # A tsibble: 194 x 5 [1Q]
#> # Key:       .model [1]
#>    .model                                           Quarter   Beer Bricks Cement
#>    <chr>                                              <qtr>  <dbl>  <dbl>  <dbl>
#>  1 "VARIMA(vars(Beer, Bricks, Cement) ~ pdq(4, 1, … 1956 Q1  NA     NA     NA   
#>  2 "VARIMA(vars(Beer, Bricks, Cement) ~ pdq(4, 1, … 1956 Q2  NA     NA     NA   
#>  3 "VARIMA(vars(Beer, Bricks, Cement) ~ pdq(4, 1, … 1956 Q3  NA     NA     NA   
#>  4 "VARIMA(vars(Beer, Bricks, Cement) ~ pdq(4, 1, … 1956 Q4  NA     NA     NA   
#>  5 "VARIMA(vars(Beer, Bricks, Cement) ~ pdq(4, 1, … 1957 Q1  NA     NA     NA   
#>  6 "VARIMA(vars(Beer, Bricks, Cement) ~ pdq(4, 1, … 1957 Q2  -3.00   2.74  21.8 
#>  7 "VARIMA(vars(Beer, Bricks, Cement) ~ pdq(4, 1, … 1957 Q3 -17.9  -10.4  -34.2 
#>  8 "VARIMA(vars(Beer, Bricks, Cement) ~ pdq(4, 1, … 1957 Q4  18.0   10.1  -30.1 
#>  9 "VARIMA(vars(Beer, Bricks, Cement) ~ pdq(4, 1, … 1958 Q1  12.8   10.2   24.0 
#> 10 "VARIMA(vars(Beer, Bricks, Cement) ~ pdq(4, 1, … 1958 Q2  -5.77   1.40  -7.26
#> # ℹ 184 more rows
tidy(fit)
#> # A tibble: 48 × 4
#>    .model                                               term  .response estimate
#>    <chr>                                                <chr> <chr>        <dbl>
#>  1 "VARIMA(vars(Beer, Bricks, Cement) ~ pdq(4, 1, 1), … cons… Beer        2.55  
#>  2 "VARIMA(vars(Beer, Bricks, Cement) ~ pdq(4, 1, 1), … lag(… Beer       -1.02  
#>  3 "VARIMA(vars(Beer, Bricks, Cement) ~ pdq(4, 1, 1), … lag(… Beer        0.0757
#>  4 "VARIMA(vars(Beer, Bricks, Cement) ~ pdq(4, 1, 1), … lag(… Beer        0.185 
#>  5 "VARIMA(vars(Beer, Bricks, Cement) ~ pdq(4, 1, 1), … lag(… Beer        0.185 
#>  6 "VARIMA(vars(Beer, Bricks, Cement) ~ pdq(4, 1, 1), … lag(… Beer        0.0757
#>  7 "VARIMA(vars(Beer, Bricks, Cement) ~ pdq(4, 1, 1), … lag(… Beer        0.185 
#>  8 "VARIMA(vars(Beer, Bricks, Cement) ~ pdq(4, 1, 1), … lag(… Beer        0.185 
#>  9 "VARIMA(vars(Beer, Bricks, Cement) ~ pdq(4, 1, 1), … lag(… Beer       -0.516 
#> 10 "VARIMA(vars(Beer, Bricks, Cement) ~ pdq(4, 1, 1), … lag(… Beer        0.185 
#> # ℹ 38 more rows
…
