Estimate a VARIMA model — VARIMA • fable
…
fitted(fit)
#> # A tsibble: 1,860 x 6 [1]
#> # Key:       .model [1]
#>    .model                                          index   DAX   SMI   CAC  FTSE
#>    <chr>                                           <dbl> <dbl> <dbl> <dbl> <dbl>
#>  1 VARIMA(vars(DAX, SMI, CAC, FTSE) ~ pdq(1, 1, 1…     1   NA    NA    NA    NA 
#>  2 VARIMA(vars(DAX, SMI, CAC, FTSE) ~ pdq(1, 1, 1…     2   NA    NA    NA    NA 
#>  3 VARIMA(vars(DAX, SMI, CAC, FTSE) ~ pdq(1, 1, 1…     3 1617. 1694. 1753. 2464.
#>  4 VARIMA(vars(DAX, SMI, CAC, FTSE) ~ pdq(1, 1, 1…     4 1618. 1696. 1753. 2464.
#>  5 VARIMA(vars(DAX, SMI, CAC, FTSE) ~ pdq(1, 1, 1…     5 1623. 1703. 1757. 2469.
#>  6 VARIMA(vars(DAX, SMI, CAC, FTSE) ~ pdq(1, 1, 1…     6 1627. 1709. 1759. 2474.
#>  7 VARIMA(vars(DAX, SMI, CAC, FTSE) ~ pdq(1, 1, 1…     7 1628. 1710. 1759. 2473.
#>  8 VARIMA(vars(DAX, SMI, CAC, FTSE) ~ pdq(1, 1, 1…     8 1632. 1716. 1762. 2478.
#>  9 VARIMA(vars(DAX, SMI, CAC, FTSE) ~ pdq(1, 1, 1…     9 1635. 1723. 1764. 2482.
#> 10 VARIMA(vars(DAX, SMI, CAC, FTSE) ~ pdq(1, 1, 1…    10 1637. 1727. 1766. 2484.
#> # ℹ 1,850 more rows
residuals(fit)
#> # A tsibble: 1,860 x 6 [1]
#> # Key:       .model [1]
#>    .model                                      index    DAX    SMI    CAC   FTSE
#>    <chr>                                       <dbl>  <dbl>  <dbl>  <dbl>  <dbl>
#>  1 VARIMA(vars(DAX, SMI, CAC, FTSE) ~ pdq(1, …     1  NA     NA     NA     NA   
#>  2 VARIMA(vars(DAX, SMI, CAC, FTSE) ~ pdq(1, …     2  NA     NA     NA     NA   
#>  3 VARIMA(vars(DAX, SMI, CAC, FTSE) ~ pdq(1, …     3 -10.6  -15.5  -34.8  -15.8 
#>  4 VARIMA(vars(DAX, SMI, CAC, FTSE) ~ pdq(1, …     4  13.4    3.62 -10.4   21.9 
#>  5 VARIMA(vars(DAX, SMI, CAC, FTSE) ~ pdq(1, …     5  -7.43  -4.25  11.8    9.15
#>  6 VARIMA(vars(DAX, SMI, CAC, FTSE) ~ pdq(1, …     6 -11.3  -21.2  -11.4  -22.1 
#>  7 VARIMA(vars(DAX, SMI, CAC, FTSE) ~ pdq(1, …     7  19.1   10.4   19.9   21.4 
#>  8 VARIMA(vars(DAX, SMI, CAC, FTSE) ~ pdq(1, …     8   5.11  14.6   19.9   15.8 
#>  9 VARIMA(vars(DAX, SMI, CAC, FTSE) ~ pdq(1, …     9  -7.71 -12.9   -5.49  -1.79
#> 10 VARIMA(vars(DAX, SMI, CAC, FTSE) ~ pdq(1, …    10   8.02  14.6   -1.21 -15.4 
#> # ℹ 1,850 more rows
tidy(fit)
#> # A tibble: 36 × 4
#>    .model                                           term      .response estimate
#>    <chr>                                            <chr>     <chr>        <dbl>
#>  1 VARIMA(vars(DAX, SMI, CAC, FTSE) ~ pdq(1, 1, 1)) constant  DAX        2.21   
#>  2 VARIMA(vars(DAX, SMI, CAC, FTSE) ~ pdq(1, 1, 1)) lag(DAX,… DAX        0.406  
#>  3 VARIMA(vars(DAX, SMI, CAC, FTSE) ~ pdq(1, 1, 1)) lag(SMI,… DAX       -0.289  
#>  4 VARIMA(vars(DAX, SMI, CAC, FTSE) ~ pdq(1, 1, 1)) lag(CAC,… DAX        0      
#>  5 VARIMA(vars(DAX, SMI, CAC, FTSE) ~ pdq(1, 1, 1)) lag(FTSE… DAX        0      
#>  6 VARIMA(vars(DAX, SMI, CAC, FTSE) ~ pdq(1, 1, 1)) lag(e_DA… DAX        0.404  
#>  7 VARIMA(vars(DAX, SMI, CAC, FTSE) ~ pdq(1, 1, 1)) lag(e_SM… DAX       -0.195  
#>  8 VARIMA(vars(DAX, SMI, CAC, FTSE) ~ pdq(1, 1, 1)) lag(e_CA… DAX       -0.00770
#>  9 VARIMA(vars(DAX, SMI, CAC, FTSE) ~ pdq(1, 1, 1)) lag(e_FT… DAX       -0.128  
#> 10 VARIMA(vars(DAX, SMI, CAC, FTSE) ~ pdq(1, 1, 1)) constant  SMI        2.10   
#> # ℹ 26 more rows
…
