Introduction to fable • fable
…
The fitted values and residuals from a model can obtained using fitted() and residuals() respectively. Additionally, the augment() function may be more convenient, which provides the original data along with both fitted values and their residuals.

fit %>%
  augment()
#> # A tsibble: 640 x 8 [1Q]
#> # Key:       Region, State, Purpose, .model [8]
#>    Region    State    Purpose  .model Quarter Trips .fitted  .resid
#>    <chr>     <chr>    <chr>    <chr>    <qtr> <dbl>   <dbl>   <dbl>
#>  1 Melbourne Victoria Business ets    1998 Q1  405.    396.    9.54
#>  2 Melbourne Victoria Business ets    1998 Q2  408.    483.  -75.1 
#>  3 Melbourne Victoria Business ets    1998 Q3  486.    487.   -1.13
#>  4 Melbourne Victoria Business ets    1998 Q4  429.    454.  -25.2 
#>  5 Melbourne Victoria Business ets    1999 Q1  361.    391.  -30.3 
#>  6 Melbourne Victoria Business ets    1999 Q2  486.    466.   19.9 
#>  7 Melbourne Victoria Business ets    1999 Q3  359.    492. -133.  
#>  8 Melbourne Victoria Business ets    1999 Q4  426.    424.    1.49
#>  9 Melbourne Victoria Business ets    2000 Q1  495.    364.  130.  
#> 10 Melbourne Victoria Business ets    2000 Q2  499.    477.   22.0 
#> # … with 630 more rows
…
Forecasts from these models can be produced directly as our specified models do not require any additional data.

fc <- fit %>%
  forecast(h = "5 years")
fc
#> # A fable: 160 x 7 [1Q]
#> # Key:     Region, State, Purpose, .model [8]
#>    Region    State    Purpose  .model Quarter Trips .distribution
#>    <chr>     <chr>    <chr>    <chr>    <qtr> <dbl> <dist>       
#>  1 Melbourne Victoria Business ets    2018 Q1  619. N(619, 3533) 
#>  2 Melbourne Victoria Business ets    2018 Q2  709. N(709, 3766) 
#>  3 Melbourne Victoria Business ets    2018 Q3  738. N(738, 4042) 
#>  4 Melbourne Victoria Business ets    2018 Q4  713. N(713, 4364) 
#>  5 Melbourne Victoria Business ets    2019 Q1  664. N(664, 4735) 
#>  6 Melbourne Victoria Business ets    2019 Q2  755. N(755, 5159) 
#>  7 Melbourne Victoria Business ets    2019 Q3  784. N(784, 5640) 
#>  8 Melbourne Victoria Business ets    2019 Q4  759. N(759, 6181) 
#>  9 Melbourne Victoria Business ets    2020 Q1  710. N(710, 6786) 
#> 10 Melbourne Victoria Business ets    2020 Q2  800. N(800, 7458) 
#> # … with 150 more rows

The resulting forecasts are contained in a “fable” (forecast table), and both point forecasts (Trips) and forecast distributions (.distribution) are available in the table for the next five years.

Intervals can be extracted from the distribution using the hilo() function.

fc %>%
  mutate(interval = hilo(.distribution, 80))
#> # A fable: 160 x 8 [1Q]
#> # Key:     Region, State, Purpose, .model [8]
#>    Region  State  Purpose .model   Quarter Trips .distribution     interval
#>    <chr>   <chr>  <chr>   <chr>      <qtr> <dbl> <dist>              <hilo>
#>  1 Melbou… Victo… Busine… ets      2018 Q1  619. N(619, 3533)  [542.3864, …
#>  2 Melbou… Victo… Busine… ets      2018 Q2  709. N(709, 3766)  [630.4443, …
#>  3 Melbou… Victo… Busine… ets      2018 Q3  738. N(738, 4042)  [656.9891, …
#>  4 Melbou… Victo… Busine… ets      2018 Q4  713. N(713, 4364)  [628.7879, …
#>  5 Melbou… Victo… Busine… ets      2019 Q1  664. N(664, 4735)  [575.8480, …
#>  6 Melbou… Victo… Busine… ets      2019 Q2  755. N(755, 5159)  [662.5141, …
#>  7 Melbou… Victo… Busine… ets      2019 Q3  784. N(784, 5640)  [687.6922, …
#>  8 Melbou… Victo… Busine… ets      2019 Q4  759. N(759, 6181)  [658.1603, …
#>  9 Melbou… Victo… Busine… ets      2020 Q1  710. N(710, 6786)  [603.9336, …
#> 10 Melbou… Victo… Busine… ets      2020 Q2  800. N(800, 7458)  [689.3620, …
#> # … with 150 more rows

It may be more convenient to use hilo() on the entire fable, which allows you to extract multiple intervals at once.

fc %>%
  hilo(level = c(80, 95))
#> # A tsibble: 160 x 8 [1Q]
#> # Key:       Region, State, Purpose, .model [8]
#>    Region  State  Purpose  .model   Quarter Trips        `80%`        `95%`
#>    <chr>   <chr>  <chr>    <chr>      <qtr> <dbl>       <hilo>       <hilo>
#>  1 Melbou… Victo… Business ets      2018 Q1  619. [542.3864, … [502.0619, …
#>  2 Melbou… Victo… Business ets      2018 Q2  709. [630.4443, … [588.8099, …
#>  3 Melbou… Victo… Business ets      2018 Q3  738. [656.9891, … [613.8580, …
#>  4 Melbou… Victo… Business ets      2018 Q4  713. [628.7879, … [583.9734, …
#>  5 Melbou… Victo… Business ets      2019 Q1  664. [575.8480, … [529.1653, …
#>  6 Melbou… Victo… Business ets      2019 Q2  755. [662.5141, … [613.7848, …
#>  7 Melbou… Victo… Business ets      2019 Q3  784. [687.6922, … [636.7426, …
#>  8 Melbou… Victo… Business ets      2019 Q4  759. [658.1603, … [604.8230, …
#>  9 Melbou… Victo… Business ets      2020 Q1  710. [603.9336, … [548.0468, …
#> 10 Melbou… Victo… Business ets      2020 Q2  800. [689.3620, … [630.7735, …
#> # … with 150 more rows
…
